{
  "BankKey": "4",
  "SiteBankId": "4",
  "ClientAccountKey": "8",
  "SiteClientAccountId": "8",
  "DataEntrySetupFields": [
    {
      "WorkgroupDataEntryColumnKey": 74,
      "FieldName": "Amount",
      "DataType": 7,
      "IsCheck": false
    },
    {
      "WorkgroupDataEntryColumnKey": 75,
      "FieldName": "PaidDate",
      "DataType": 11,
      "IsCheck": false
    },
    {
      "WorkgroupDataEntryColumnKey": 76,
      "FieldName": "Remitter",
      "DataType": 1,
      "IsCheck": true
    }

  ]
}
