﻿{
  "BankKey": "3",
  "SiteBankId": "3",
  "ClientAccountKey": "7",
  "SiteClientAccountId": "7",
  "DataEntrySetupFields": [
    {
      "WorkgroupDataEntryColumnKey": 71,
      "FieldName": "Amount",
      "DataType": 7,
      "IsCheck": false
    },
    {
      "WorkgroupDataEntryColumnKey": 72,
      "FieldName": "PaidDate",
      "DataType": 11,
      "IsCheck": false
    },
    {
      "WorkgroupDataEntryColumnKey": 73,
      "FieldName": "Remitter",
      "DataType": 1,
      "IsCheck": true
    }

  ]
}