{
  "BankKey": "5",
  "SiteBankId": "5",
  "ClientAccountKey": "9",
  "SiteClientAccountId": "9",
  "DataEntrySetupFields": [
    {
      "WorkgroupDataEntryColumnKey": 77,
      "FieldName": "Amount",
      "DataType": 7,
      "IsCheck": false
    },
    {
      "WorkgroupDataEntryColumnKey": 78,
      "FieldName": "PaidDate",
      "DataType": 11,
      "IsCheck": false
    },
    {
      "WorkgroupDataEntryColumnKey": 79,
      "FieldName": "Remitter",
      "DataType": 1,
      "IsCheck": true
    }

  ]
}
