[
    {

        "name": "os",
        "version": "6.3.9200",
        "comment": "https://en.wikipedia.org/wiki/Ver_(command)"

    },
    {
        "name": "iis",
        "version": "8.0"
    },
    {
        "name": ".Net Core",
        "version": "2.0.6"
    },
    {
        "name": ".Net Framework",
        "version": "4.6"
    },
    {
        "name": "TLS",
        "version": "1.2"
    },
    {
        "name": "IIS Rewrite Module",
        "version": ""
    },
    {
        "name": "Enforce strong cryptography for .net apps",
        "version": ""
    }
]
