101 072000096 0720000961305140505G094101MI POST-C RED MICHIGAN COMERICA BANK                  
5220AES                                 E231693362PPDSTDNT LOAN1305121305141341022000040000287
6220720000960000000210987654300000125204780010494PA   BELLINS, CAMELA         0022000048665019
82200000010007200009000000000000000000012520E231693362                         022000040000287
5220AUTOMOTIVE CREDIGENERATED                     PCDPAYMENT CK1305141305141341072000090000000
622072000096000000011223344550000115161-SETT-EDS CONSUAUTOMOTI2             CS0072000099070367
82200000010007200009000000000000000000115161                                   072000090000000
5220AUTOMOTIVE CREDIGENERATED                     PPDPAYMENT SV1305141305141341072000090000000
622072000096000000011223344550001274279-SETT-EDS CONSUAUTOMOTIV             CS0072000099070349
82200000010007200009000000000000000001274279                                   072000090000000
5220AUTOMOTIVECREDITGENERATED                     PPDCONVEN FEE1305141305141341072000090000000
622072000096000000012354689710000000597-SETT-EDS CONSUAUTOMOTI3             CS0072000099070371
82200000010007200009000000000000000000000597                                   072000090000000
5220AVNET                               9266661001PPDPAYMENTS  1305141305141341021000020753048
62207200009600000009012345678007866556874338216       VISHAY AMERICAS INC     0021000028725494
822000000100072000090000000000000000786655689266661001                         021000020753048
5220EASY LOAN PAY   GENERATED                     PPDCONVEN FEE1305141305141341072000090000000
622072000096000000012354689710000024005-SETT-EDS CONSUEASY                  CS0072000099070369
622072000096000000012354689710000004760-SETT-EDS CONSUEASY LOAN             CS0072000099070378
82200000020014400018000000000000000000028765                                   072000090000000
5220MONEYGRAM P SYS                     3841327808PPDMG SETTLE 0513131305141341043000260007142
622072000096000000011223344550000885806100051398      AUTOMOTIVE CREDIT CORP  1043000268807374
705100051398,69810931                                                              00012957573
622072000096000000011223344550000037956100051398      AUTOMOTIVE CREDIT CORP  1043000268807376
705100051398,69848746                                                              00012957575
622072000096000000011223344550000196410100051398      AUTOMOTIVE CREDIT CORP  1043000268807378
705100051398,69831292                                                              00012957577
822000000600216000270000000000000000011201723841327808                         043000260007142
5220RETURN SETTLE   GENERATED                     PPDRETURN    1305141305141341072000090000000
622072000096000000011223344550000224754-SETT-EDS CONSUCOMPANY   RETIRE      DS0072000099069705
622072000096000000012354689710000003572-SETT-EDS CONSUCOMPANY   RETIRE      DS0072000099069709
622072000096000000045678901230000105500-SETT-EDS CONSUCOMPANY   RETIRE      DS0072000099069710
82200000030021600027000000000000000000333826                                   072000090000000
5220SERVICING SOLUTIGENERATED                     PPDPAYMENT   1305141305141341072000090000000
622072000096000000045678901230000359953-SETT-EDS CONSUSERVICING             CS0072000099069707
82200000010007200009000000000000000000359953                                   072000090000000
5220SERVICING SOLUTIGENERATED                     PPDPAYMENT CK1305141305141341072000090000000
622072000096000000045678901230000105000-SETT-EDS CONSUSERVICING             CS0072000099070374
622072000096000000045678901230000105000-SETT-EDS CONSUSERVICING             CS0072000099070375
82200000020014400018000000000000000000210000                                   072000090000000
9000010000051000000190115200144000000000000000082120841                                       