<?xml version="1.0" encoding="UTF-8" standalone="no"?>
<svg width="97px" height="103px" viewBox="0 0 97 103" version="1.1" xmlns="http://www.w3.org/2000/svg" xmlns:xlink="http://www.w3.org/1999/xlink">
    <!-- Generator: Sketch 3.6.1 (26313) - http://www.bohemiancoding.com/sketch -->
    <title>Group</title>
    <desc>Created with Sketch.</desc>
    <defs></defs>
    <g id="Page-1" stroke-width="2" fill="none" fill-rule="evenodd">
        <g id="Group" fill="#fff">
            <path d="M96.4,55.1 C95.9,49.1 89,44.3 84,42.6 C82.3,42 80.5,41.4 78.8,40.9 C76.1,40.1 73.4,39.4 70.6,38.9 C64.5,37.7 58.2,37 51.7,36.9 L51.7,26.9 L33,45.5 L51.7,64.2 L51.7,53.8 C58.2,53.9 64.4,54.4 70.6,55.4 C73.2,55.8 75.8,56.3 78.4,56.9 C78.5,56.9 78.7,57 78.8,57 C94,60.6 95.9,65.7 96.7,67.4 C97.2,60.6 96.4,55.5 96.4,55.1 L96.4,55.1 Z" id="Shape"></path>
            <path d="M90.7,64.3 C90.5,64.6 90.2,64.9 89.9,65.1 C89.7,65.2 89.6,65.4 89.4,65.5 C87.1,67.3 83.9,69 78.8,70.4 L78.8,60.8 C78.4,60.7 78,60.6 77.6,60.5 C75.3,60 73,59.5 70.7,59.1 L70.7,94.4 L8.8,94.4 L8.8,28.1 L27.8,28.1 L27.8,9.1 L70.7,9.1 L70.7,35.1 C73.5,35.6 76.2,36.3 78.9,37 L78.9,0.9 L27.8,0.9 L19.6,0.9 L19.6,0.9 L0.6,19.9 L0.6,28.1 L0.6,102.6 L78.8,102.6 L78.8,79.4 C83.3,78.3 87.3,76.8 91.1,74.3 C92.8,72.9 93.8,72 94,70.3 C94,70.1 94.1,69.8 94.1,69.6 C94.1,67.8 93,66 90.7,64.3 L90.7,64.3 Z M19.5,12.5 L20.8,11.2 L20.8,21.3 L10.7,21.3 L12,20 L19.5,12.5 L19.5,12.5 Z" id="Shape"></path>
        </g>
    </g>
</svg>