[
	{"BatchSourceKey":104,"IsActive":true,"ImportTypeName":"ImageRPS","EntityId":null,"ShortName":"ImageRPSElkhorn","LongName":"ImageRPSElkhorn"},
	{"BatchSourceKey":105,"IsActive":true,"ImportTypeName":"DIT","EntityId":null,"ShortName":"GenericElkhorn","LongName":"GenericElkhorn"},
	{"BatchSourceKey":115,"IsActive":true,"ImportTypeName":"DIT","EntityId":null,"ShortName":"ACH Service","LongName":"ACH Service"},
	{"BatchSourceKey":121,"IsActive":true,"ImportTypeName":"DIT","EntityId":null,"ShortName":"AUTOMATIONIMAGERPS","LongName":"AUTOMATIONIMAGERPS"},
	{"BatchSourceKey":122,"IsActive":true,"ImportTypeName":"DIT","EntityId":null,"ShortName":"AutomationWIRE","LongName":"AutomationWIRE"},
	{"BatchSourceKey":127,"IsActive":true,"ImportTypeName":"DIT","EntityId":null,"ShortName":"AutomationACH","LongName":"AutomationACH"},
	{"BatchSourceKey":129,"IsActive":true,"ImportTypeName":"integraPAY","EntityId":null,"ShortName":"INTEGRAPAY-I1","LongName":"INTEGRAPAY-I1"},
]