01,623929681,072000096,141020,1503,0116,80,,2/
02,072000096,121137522,1,031020,1503,,3/
03,62301,,,,,,,,,/
16,495,000000000002183,0,623,001201/
88,ADDENDA={8300}PIPROPBILL T SMITH JR PA*NOT PROVIDED*{8350}HERITAGE ROASTING 
88,COMPANY*{8400}CINVI000001*{8450}USD126.76*{8500}USD126.76*{8550}USD0.00*
88,{8600}01DBITUSD100.00*Deducted $100 from pmt due to pricing error in original
88,invoice*{8650}20140324{8700}DISPI000001-BM101-12323906*{8400}CINVI000002*
88,{8450}USD539.25*{8500}USD539.25*{8650}20140324{8700}DISPI000002-BM101-1232390 
88,6*{8750}**:ESA:NOTCONVERTED*/
49,+00000000002000,000009/
98,2000,000001,000011/
99,3000,000001,000013/