01,192000422,112233445,170621,0803,0455,80,,2/
02,112233445,121137522,1,170621,0803,,3/
03,123456722,,,,,,,,,/
16,195,000000000002183,0,170621010001,002727/
16,195,000000000002184,0,170621010002,002728/
88,ADDENDA=[830]PIPROPBILL A SMITH JR PA*NOT PROVIDED*[835]HERITAGE ROASTING 
88,COMPANY*[840]CINVI000001*[845]USD126.76*[850]USD126.76*[855]USD0.00*
88,[860]01DBITUSD100.00*Deducted $100 from pmt due to pricing error in original
88,invoice*[865]20170621[870]DISPI000001-BM101-12323906*[840]CINVI000002*
88,[845]USD539.25*[850]USD539.25*[865]20170621[870]DISPI000002-BM101-1232390 
88,6*[875]**:ESA:NOTCONVERTED*/
88,Sending Bank: 094000026 - Sending Bank Reference: FT170008006001\
49,+00000000002000,000011/
98,2000,000001,00013/
99,2000,000001,000015/