TestName,Workgroup,DepositDate,PaymentType,Expected
Test Advanced Search PaymentType,WFS\Mosinee Bank\DevCompany\303030 - 30,10/16/2015,Check,paymentType=check
Test Advanced Search PaymentType,WFS\Mosinee Bank\DevCompany\510051 - 51,10/16/2015,Check,paymentType=check
