{
	"SiteBankId":1,
	"SiteClientAccountId":1,
	"DepositDate":"@CURRENTDATE-1",
	"ImmutableDate":"@CURRENTDATE-1",
	"SourceProcessingDate":"@CURRENTDATE-3",
	"SourceBatchId":123,
	"BatchNumber":1,
	"BatchSource":"ImageRPS",
	"PaymentType":"Lockbox",
	"BatchExceptionStatus":"NoException",
	"BatchCueID":1,
	"DepositStatusName":"Deposit Complete",
	"SystemType":1,
	"BatchSiteCode":1,
	"DepositDDA":null,
	"Batches":
	[
		{
			"SourceBatchId":8,
			"BatchNumber":8,
			"DepositDate":"@CURRENTDATE",
			"ImmutableDate":"@CURRENTDATE",
			"SourceProcessingDate":"@CURRENTDATE-2",
			"BatchCueID":5216,
			"BatchSiteCode":1000,
			"TransactionExceptionStatus":"NoException",
			"Transactions":
			[
				{
					"Checks":
					[
						{
						"Amount":24670.66, "RoutingNumber":"743675941", "Account":"60325407", "Serial":"6395", "ABA":"104000016", "DDA":"2226188748", "TransactionCode":"321", "RemitterName":"Adam Zapel",
						"RemittanceData": [ { "FieldName": "TestString", "Value": "Simple" }, { "FieldName": "TestFloat", "Value": "3.14159" }, { "FieldName": "TestMoney", "Value": "147.59" }, { "FieldName": "TestDate", "Value": "08/10/2019" } ]
						},
						{
						"Amount":3505.60, "RoutingNumber":"053353869", "Account":"00562756", "Serial":"9091", "ABA":"104000016", "DDA":"2226188748", "TransactionCode":"432", "RemitterName":"Peg Legge",
						"RemittanceData": [ { "FieldName": "TestString", "Value": "Test" }, { "FieldName": "TestFloat", "Value": "3.14159" }, { "FieldName": "TestMoney", "Value": "147.59" }, { "FieldName": "TestDate", "Value": "08/10/2019" } ]
						}
					]
				},
				{
					"Checks":
					[
						{
						"Amount":2647.48, "RoutingNumber":"443895254", "Account":"31933672", "Serial":"2370", "ABA":"104000016", "DDA":"2226188748", "TransactionCode":"543", "RemitterName":"Eileen Sideways",
						"RemittanceData": [ {"FieldName": "TestString", "Value":"Balanced Multi-Check"},{"FieldName": "TestFloat", "Value":"4.3322"},{"FieldName": "TestMoney", "Value":"1388.39"},{"FieldName": "TestDate", "Value":"10/04/2019"} ]						
						},
						{"Amount":5244.29, "RoutingNumber":"524823190", "Account":"95749444", "Serial":"8123", "ABA":"104000016", "DDA":"2226188748", "TransactionCode":"654", "RemitterName":"Paige Turner"}
					]
				},
				{
					"Checks":
					[
						{
						"Amount":177.65, "RoutingNumber":"516838834", "Account":"10060715", "Serial":"8026", "ABA":"104000016", "DDA":"2226188748", "TransactionCode":"764", "RemitterName":"Isabelle Ringing",
						"RemittanceData": [ {"FieldName": "TestString", "Value":"Balanced Single-Single"},{"FieldName": "TestFloat", "Value":"9.2783"},{"FieldName": "TestMoney", "Value":"177.65"},{"FieldName": "TestDate", "Value":"01/01/2019"} ] 
						}
					]
				},
				{
					"Checks":
					[
						{
						"Amount":455.71, "RoutingNumber":"649109618", "Account":"22421569", "Serial":"5332", "ABA":"104000016", "DDA":"2226188748", "TransactionCode":"876", "RemitterName":"Perry Scope",
						"RemittanceData": [ {"FieldName": "TestString", "Value":"Balanced Single-Single"},{"FieldName": "TestFloat", "Value":"1.1111"},{"FieldName": "TestMoney", "Value":"455.71"},{"FieldName": "TestDate", "Value":"10/01/2019"} ] 
						}
					]
				}
			]
		},
		{
			"SourceBatchId":11,
			"BatchNumber":11,
			"BatchCueID":5217,
			"BatchSiteCode":1000,
			"TransactionExceptionStatus":"NoException",
			"Transactions":
			[
				{
					"Checks":
					[
						{"Amount":94.50, "RoutingNumber":"095601171", "Account":"123456", "Serial":"1733", "ABA":"104000016", "DDA":"2226188748", "TransactionCode":"1234", "RemitterName":"Rose Bush"},
						{
						"Amount":743.49, "RoutingNumber":"051402589", "Account":"0802456506", "Serial":"0312", "ABA":"104000016", "DDA":"2226188748", "TransactionCode":"2345", "RemitterName":"Oscar Nommanee",
						"RemittanceData": [ {"FieldName": "TestString", "Value":"Balanced Multi-Check"},{"FieldName": "TestFloat", "Value":"2.2222"},{"FieldName": "TestMoney", "Value":"837.99"},{"FieldName": "TestDate", "Value":"10/02/2019"} ] 
						}
					]					
				},
				{
					"Checks":
					[
						{"Amount":1366.56, "RoutingNumber":"0671820248", "Account":"15390510", "Serial":"7034", "ABA":"104000016", "DDA":"2226188748", "TransactionCode":"3456", "RemitterName":"Anna Littlical"},
						{
						"Amount":21.83, "RoutingNumber":"026921778", "Account":"20572618", "Serial":"8124", "ABA":"104000016", "DDA":"2226188748", "TransactionCode":"4567", "RemitterName":"Rita Book",
						"RemittanceData": [ {"FieldName": "TestString", "Value":"Balanced Multi-Check"},{"FieldName": "TestFloat", "Value":"4.3322"},{"FieldName": "TestMoney", "Value":"1388.39"},{"FieldName": "TestDate", "Value":"10/04/2019"} ] 
						}	
					]						
				},
				{
					"Checks":
					[
						{
						"Amount":2247.54, "RoutingNumber":"256073373", "Account":"80361613", "Serial":"1352", "ABA":"104000016", "DDA":"2226188748", "TransactionCode":"5678", "RemitterName":"Hugo First",
						"RemittanceData": [ {"FieldName": "TestString", "Value":"Balanced Single-Single"},{"FieldName": "TestFloat", "Value":"49.4328"},{"FieldName": "TestMoney", "Value":"2247.54"},{"FieldName": "TestDate", "Value":"09/04/2019"} ] 
						}	
					]						
				},
				{
					"Checks":
					[
						{
						"Amount":240.05, "RoutingNumber":"109090909", "Account":"12345", "Serial":"08029", "ABA":"104000016", "DDA":"2226188748", "TransactionCode":"6789", "RemitterName":"",
						"RemittanceData": [ {"FieldName": "TestString", "Value":"Unbalanced Single-Single"},{"FieldName": "TestFloat", "Value":"9.3423"},{"FieldName": "TestMoney", "Value":"25.00"},{"FieldName": "TestDate", "Value":"09/05/2019"} ] 
						}	
					]
				}
			]
		},
		{
			"SourceBatchId":15,
			"BatchNumber":15,
			"BatchCueID":5218,
			"BatchSiteCode":1000,
			"TransactionExceptionStatus":"NoException",
			"Transactions":
			[
				{
					"Checks":
					[
						{
						"Amount":150.01, "RoutingNumber":"077480624", "Account":"32080958", "Serial":"2962", "ABA":"104000016", "DDA":"2226188748", "TransactionCode":"7890", "RemitterName":"Anne Teak",
						"RemittanceData": [ {"FieldName": "TestString", "Value":"Unbalanced Multi-Multi"},{"FieldName": "TestFloat", "Value":"1.999"},{"FieldName": "TestMoney", "Value":"837.99"},{"FieldName": "TestDate", "Value":"10/01/2019"} ]
						},
						{
						"Amount":477.77, "RoutingNumber":"008116488", "Account":"88418022", "Serial":"4598", "ABA":"104000016", "DDA":"2226188748", "TransactionCode":"8901", "RemitterName":"Art Decco",
						"RemittanceData": [ {"FieldName": "TestString", "Value":"Unbalanced Multi-Multi"},{"FieldName": "TestFloat", "Value":"2.999"},{"FieldName": "TestMoney", "Value":"25.00"},{"FieldName": "TestDate", "Value":"10/02/2019"} ]
						}
					]
				},
				{
					"Checks":
					[
						{
						"Amount":744.16, "RoutingNumber":"025428913", "Account":"37189207", "Serial":"1458", "ABA":"104000016", "DDA":"2226188748", "TransactionCode":"9012", "RemitterName":"Mal Ajusted",
						"RemittanceData": [ {"FieldName": "TestString", "Value":"Unbalanced Multi-Multi"},{"FieldName": "TestFloat", "Value":"3.999"},{"FieldName": "TestMoney", "Value":"0.00"},{"FieldName": "TestDate", "Value":"10/03/2019"} ]
						},
						{
						"Amount":333.87, "RoutingNumber":"049284285", "Account":"32080958", "Serial":"6528", "ABA":"104000016", "DDA":"2226188748", "TransactionCode":"0123", "RemitterName":"Fran Tick",
						"RemittanceData": [ {"FieldName": "TestString", "Value":"Unbalanced Multi-Multi"},{"FieldName": "TestFloat", "Value":"4.999"},{"FieldName": "TestMoney", "Value":"0.25"},{"FieldName": "TestDate", "Value":"10/04/2019"} ]
						}
					]
				},
				{
					"Checks":
					[
						{
						"Amount":6440.43, "RoutingNumber":"077480624", "Account":"96725340", "Serial":"2554", "ABA":"104000016", "DDA":"2226188748", "TransactionCode":"4321", "RemitterName":"Justin Case",
						"RemittanceData": [ {"FieldName": "TestString", "Value":"Balanced Single-Single"},{"FieldName": "TestFloat", "Value":"7.999"},{"FieldName": "TestMoney", "Value":"25.00"},{"FieldName": "TestDate", "Value":"09/01/2019"} ] 
						}
					]
				},
				{
					"Checks":
					[
						{
						"Amount":4568.21, "RoutingNumber":"008116488", "Account":"64292703", "Serial":"7554", "ABA":"104000016", "DDA":"2226188748", "TransactionCode":"5432", "RemitterName":"Les Ismore",
						"RemittanceData": [ {"FieldName": "TestString", "Value":"Balanced Single-Single"},{"FieldName": "TestFloat", "Value":"8.999"},{"FieldName": "TestMoney", "Value":"25.00"},{"FieldName": "TestDate", "Value":"09/02/2019"} ] 
						}
					]
				},
				{
					"Checks":
					[
						{"Amount":9158.48, "RoutingNumber":"077480624", "Account":"96372050", "Serial":"4563", "ABA":"104000016", "DDA":"2226188748", "TransactionCode":"6543", "RemitterName":"Pete Moss"},
						{"Amount":2378.31, "RoutingNumber":"025428913", "Account":"64292703", "Serial":"3332", "ABA":"104000016", "DDA":"2226188748", "TransactionCode":"7654", "RemitterName":"Polly Ester"},
						{"Amount":1937.99, "RoutingNumber":"025428913", "Account":"32345", "Serial":"1221", "ABA":"104000016", "DDA":"2226188748", "TransactionCode":"8765", "RemitterName":"Pierce Myhart"},
						{"Amount":7195.87, "RoutingNumber":"095601171", "Account":"5137457049", "Serial":"5214", "ABA":"104000016", "DDA":"2226188748", "TransactionCode":"9876", "RemitterName":"Rocky Rhoades"}
					]
				},
				{
					"Checks":
					[
						{
						"Amount":658.94, "RoutingNumber":"080881142", "Account":"32080958", "Serial":"9547", "ABA":"104000016", "DDA":"2226188748", "TransactionCode":"0987", "RemitterName":"Warren Peace",
						"RemittanceData": [ {"FieldName": "TestString", "Value":"Balanced Single-Single"},{"FieldName": "TestFloat", "Value":"9.111"},{"FieldName": "TestMoney", "Value":"15.00"},{"FieldName": "TestDate", "Value":"08/31/2019"} ] 
						}
					]
				},
				{
					"Checks":
					[
						{
						"Amount":88.27, "RoutingNumber":"078237559", "Account":"37189207", "Serial":"45228", "ABA":"104000016", "DDA":"2226188748", "TransactionCode":"123", "RemitterName":"Will Power",
						"RemittanceData": [ {"FieldName": "TestString", "Value":"Balanced Single-Single"},{"FieldName": "TestFloat", "Value":"9.222"},{"FieldName": "TestMoney", "Value":"45.00"},{"FieldName": "TestDate", "Value":"08/30/2019"} ] 
						}
					]
				}
			]
		}
	]
}