{
	"SiteBankId":1,
	"SiteClientAccountId":1,
	"DepositDate":"@CURRENTDATE-1",
	"ImmutableDate":"@CURRENTDATE-1",
	"SourceProcessingDate":"@CURRENTDATE-3",
	"SourceBatchId":123,
	"BatchNumber":1,
	"BatchSource":"ImageRPS",
	"PaymentType":"Lockbox",
	"BatchExceptionStatus":"NoException",
	"BatchCueID":1,
	"DepositStatusName":"Deposit Complete",
	"SystemType":1,
	"BatchSiteCode":1,
	"DepositDDA":null,
	"Batches":
	[
		{
			"SourceBatchId":8,
			"BatchNumber":8,
			"DepositDate":"@CURRENTDATE",
			"ImmutableDate":"@CURRENTDATE",
			"SourceProcessingDate":"@CURRENTDATE-2",
			"BatchCueID":5216,
			"BatchSiteCode":1000,
			"TransactionExceptionStatus":"NoException",
			"Transactions":
			[
				{
					"CheckCount":0,
					"StubCount":0,
					"DocumentCount":3
				},
				{
					"Checks":
					[
						{
							"Amount":2647.48, 
							"RoutingNumber":"443895254", 
							"Account":"31933672", 
							"Serial":"2370", 
							"ABA":"104000016", 
							"DDA":"2226188748", 
							"TransactionCode":"543", 
							"RemitterName":"Eileen Sideways"
						},
						{
							"Amount":5244.29, 
							"RoutingNumber":"524823190", 
							"Account":"95749444", 
							"Serial":"8123", 
							"ABA":"104000016", 
							"DDA":"2226188748", 
							"TransactionCode":"654", 
							"RemitterName":"Paige Turner"
						}
					]
				},
				{
					"Checks":
					[
						{
							"Amount":177.65, 
							"RoutingNumber":"516838834", 
							"Account":"10060715", 
							"Serial":"8026", 
							"ABA":"104000016", 
							"DDA":"2226188748", 
							"TransactionCode":"764", 
							"RemitterName":"Isabelle Ringing"
						}
					]
				},
				{
					"Checks":
					[
						{
							"Amount":455.71, 
							"RoutingNumber":"649109618", 
							"Account":"22421569", 
							"Serial":"5332", 
							"ABA":"104000016", 
							"DDA":"2226188748", 
							"TransactionCode":"876", 
							"RemitterName":"Perry Scope"
						}
					],
					"Stubs":
					[
						{
							"Amount":455.71
						}
					]
				}
			]
		},
		{
			"DepositDate":"@CURRENTDATE-1",
			"ImmutableDate":"@CURRENTDATE-1",
			"SourceProcessingDate":"@CURRENTDATE-3",
			"SourceBatchId":11,
			"BatchNumber":11,
			"BatchCueID":5217,
			"BatchSiteCode":1000,
			"TransactionExceptionStatus":"NoException",
			"Transactions":
			[
				{
					"CheckCount":0,
					"StubCount":0,
					"DocumentCount":3
				},
				{
					"CheckCount":0,
					"StubCount":0,
					"DocumentCount":2
				},
				{
					"CheckCount":0,
					"StubCount":0,
					"DocumentCount":5
				},
				{
					"CheckCount":0,
					"StubCount":0,
					"DocumentCount":1
				}
			]
		}
	]
}