>>>>Self Configuring Tagged DIP <<<<
BEGIN:
>>DocTypeName:22 - Check1
>>DocDate:08/05/2010
Document Type:Check
Client ID:22
Client Name:Wayne Insurance
Doc Grp ID:60
Document ID:4
Transaction Number:1
Sequence Number:2
Batch ID:911
Batch Number:4601
Batch Date:08/05/2010
Process Date:05/20/2011
Applied Amount: 6354.54
Applied OpID:MARY,afe
RT:05500-288
Account:36367087
RemitterName:John Adams
P2 Sequence:1
Pocket Cut ID:00460104001
P2 Pocket Seq Num:1
System Date:01/20/2011
Receive Date:08/07/2010
Deposit Date:05/20/2011
Deposit Number:1
Deposit Time:54000
Consolidation Date:02/01/2011
Consolidation Number:1
P1 Station ID:45
P1 Operator ID:MARY
P2 Station ID:45
P2 Operator ID:MARY
Reject Job:1
Reject Reason:Test Reject Reason
Audit Trail:$2,afe,MARY,,$1,car,MARY,F,
ARC Reason:Test ARC Reason
ARC Tracer:Test ARC Tracer
Location ID:2
Location Name:Des Moines
Site ID:1
Process Type:Test Data Process TypeTest Data Process Type
Abbrev Client Name:Test Data Abbrev Client Name
>>DocRevNum:0
>>ItemPageNum:0
>>FileTypeNum:2
>>ImageType:0
>>Compress:0
>>Xdpi:200
>>Ydpi:200
>>FullPath:\\omafs01\qa\regressiontests\online\icon\sample files\olta data\images\004601\0046012.tif

END:
