>>>>Self Configuring Tagged DIP <<<<
BEGIN:
>>DocTypeName:1002 - Dummy Per/Bus Check
>>DocDate:06/04/2011
Source ID:7412
Sequence Number:30
P2 Sequence:1
Pocket Cut ID:00850204001
Applied Amount:10,868.47
Transaction Number:1
Orig P1 Seq Num:1
Batch Number:8502
Batch ID:8502
Account:012346
RT:123456780
Client ID:1002
Client Name:Madison County                                                                                      
Doc Grp ID:12
Document ID:6
Batch Date:06/04/2011
Process Date:06/04/2011
Applied OpID:RUTB         
P2 Pocket Seq Num:1
Receive Date:06/08/2011
Deposit Date:06/08/2011
Consolidation Date:06/08/2011
Consolidation Number:1
P1 Station ID:41
P1 Operator ID:7780        
P2 Station ID:41
P2 Operator ID:7780        
Reject Job:0
Reject Reason:                                        
Audit Trail:$1,cca,RUTB,,$5,cca,RUTB,,$1,chp,CAR,F,                                                                                                                                                                                                                        
Process Type:            
ARC Reason:                                                                                                                                                      
ARC Tracer:N                             
Document Type:2
Work Type:2
Bank/End Point ID:2
Site ID:1
>>DocRevNum:0
>>ItemPageNum:0
>>FileTypeNum:2
>>ImageType:0
>>Compress:0
>>Xdpi:
>>Ydpi:
>>FullPath:\\omafs01\qa\RegressionTests\Online\ICON\Sample Files\Bank of Edwardsville\Dummy Images\2007498.tif
BEGIN:
>>DocTypeName:1002 - (18 digit) Madison Stub
>>DocDate:06/04/2011
Source ID:7412
Sequence Number:11
P2 Sequence:0
Applied Amount:430.85
Transaction Number:1
Orig P1 Seq Num:11
Batch Number:8502
Batch ID:8502
Amount Paid:430.85
Parcel ID:132212601105001001
Client ID:1002
Client Name:Madison County                                                                                      
Doc Grp ID:12
Document ID:21
Batch Date:06/04/2011
Process Date:06/04/2011
Applied OpID:CAR          
P2 Pocket Seq Num:0
Receive Date:06/08/2011
Deposit Date:06/08/2011
Consolidation Date:06/08/2011
Consolidation Number:1
P1 Station ID:41
P1 Operator ID:7780        
P2 Station ID:41
P2 Operator ID:7780        
Reject Job:0
Reject Reason:                                        
Audit Trail:$5,p1,CAR,,$1,p1,CAR,,                                                                                                                                                                                                                                         
Process Type:            
ARC Reason:                                                                                                                                                      
ARC Tracer:N                             
Document Type:1
Work Type:2
Bank/End Point ID:0
Site ID:1
>>DocRevNum:0
>>ItemPageNum:0
>>FileTypeNum:2
>>ImageType:0
>>Compress:0
>>Xdpi:
>>Ydpi:
>>FullPath:\\omafs01\qa\RegressionTests\Online\ICON\Sample Files\Bank of Edwardsville\Dummy Images\2007479.tif
BEGIN:
>>DocTypeName:1002 - (18 digit) Madison Stub
>>DocDate:06/04/2011
Source ID:7412
Sequence Number:16
P2 Sequence:0
Applied Amount:966.77
Transaction Number:1
Orig P1 Seq Num:16
Batch Number:8502
Batch ID:8502
Amount Paid:966.77
Parcel ID:13221220820102326C
Client ID:1002
Client Name:Madison County                                                                                      
Doc Grp ID:12
Document ID:21
Batch Date:06/04/2011
Process Date:06/04/2011
Applied OpID:CAR          
P2 Pocket Seq Num:0
Receive Date:06/08/2011
Deposit Date:06/08/2011
Consolidation Date:06/08/2011
Consolidation Number:1
P1 Station ID:41
P1 Operator ID:7780        
P2 Station ID:41
P2 Operator ID:7780        
Reject Job:0
Reject Reason:                                        
Audit Trail:$5,p1,CAR,,$1,p1,CAR,,                                                                                                                                                                                                                                         
Process Type:            
ARC Reason:                                                                                                                                                      
ARC Tracer:N                             
Document Type:1
Work Type:2
Bank/End Point ID:0
Site ID:1
>>DocRevNum:0
>>ItemPageNum:0
>>FileTypeNum:2
>>ImageType:0
>>Compress:0
>>Xdpi:
>>Ydpi:
>>FullPath:\\omafs01\qa\RegressionTests\Online\ICON\Sample Files\Bank of Edwardsville\Dummy Images\2007484.tif
BEGIN:
>>DocTypeName:1002 - (18 digit) Madison Stub
>>DocDate:06/04/2011
Source ID:7412
Sequence Number:22
P2 Sequence:0
Applied Amount:536.89
Transaction Number:1
Orig P1 Seq Num:22
Batch Number:8502
Batch ID:8502
Amount Paid:536.89
Parcel ID:171202400000007001
Client ID:1002
Client Name:Madison County                                                                                      
Doc Grp ID:12
Document ID:21
Batch Date:06/04/2011
Process Date:06/04/2011
Applied OpID:CAR          
P2 Pocket Seq Num:0
Receive Date:06/08/2011
Deposit Date:06/08/2011
Consolidation Date:06/08/2011
Consolidation Number:1
P1 Station ID:41
P1 Operator ID:7780        
P2 Station ID:41
P2 Operator ID:7780        
Reject Job:0
Reject Reason:                                        
Audit Trail:$5,p1,CAR,,$1,p1,CAR,,                                                                                                                                                                                                                                         
Process Type:            
ARC Reason:                                                                                                                                                      
ARC Tracer:N                             
Document Type:1
Work Type:2
Bank/End Point ID:0
Site ID:1
>>DocRevNum:0
>>ItemPageNum:0
>>FileTypeNum:2
>>ImageType:0
>>Compress:0
>>Xdpi:
>>Ydpi:
>>FullPath:\\omafs01\qa\RegressionTests\Online\ICON\Sample Files\Bank of Edwardsville\Dummy Images\2007490.tif
BEGIN:
>>DocTypeName:1002 - (18 digit) Madison Stub
>>DocDate:06/04/2011
Source ID:7412
Sequence Number:23
P2 Sequence:0
Applied Amount:536.89
Transaction Number:1
Orig P1 Seq Num:23
Batch Number:8502
Batch ID:8502
Amount Paid:536.89
Parcel ID:171202400000007001
Client ID:1002
Client Name:Madison County                                                                                      
Doc Grp ID:12
Document ID:21
Batch Date:06/04/2011
Process Date:06/04/2011
Applied OpID:CAR          
P2 Pocket Seq Num:0
Receive Date:06/08/2011
Deposit Date:06/08/2011
Consolidation Date:06/08/2011
Consolidation Number:1
P1 Station ID:41
P1 Operator ID:7780        
P2 Station ID:41
P2 Operator ID:7780        
Reject Job:0
Reject Reason:                                        
Audit Trail:$5,p1,CAR,,$1,p1,CAR,,                                                                                                                                                                                                                                         
Process Type:            
ARC Reason:                                                                                                                                                      
ARC Tracer:N                             
Document Type:1
Work Type:2
Bank/End Point ID:0
Site ID:1
>>DocRevNum:0
>>ItemPageNum:0
>>FileTypeNum:2
>>ImageType:0
>>Compress:0
>>Xdpi:
>>Ydpi:
>>FullPath:\\omafs01\qa\RegressionTests\Online\ICON\Sample Files\Bank of Edwardsville\Dummy Images\2007491.tif
BEGIN:
>>DocTypeName:1002 - (18 digit) Madison Stub
>>DocDate:06/04/2011
Source ID:7412
Sequence Number:24
P2 Sequence:0
Applied Amount:536.89
Transaction Number:1
Orig P1 Seq Num:24
Batch Number:8502
Batch ID:8502
Amount Paid:536.89
Parcel ID:171202400000007001
Client ID:1002
Client Name:Madison County                                                                                      
Doc Grp ID:12
Document ID:21
Batch Date:06/04/2011
Process Date:06/04/2011
Applied OpID:CAR          
P2 Pocket Seq Num:0
Receive Date:06/08/2011
Deposit Date:06/08/2011
Consolidation Date:06/08/2011
Consolidation Number:1
P1 Station ID:41
P1 Operator ID:7780        
P2 Station ID:41
P2 Operator ID:7780        
Reject Job:0
Reject Reason:                                        
Audit Trail:$5,p1,CAR,,$1,p1,CAR,,                                                                                                                                                                                                                                         
Process Type:            
ARC Reason:                                                                                                                                                      
ARC Tracer:N                             
Document Type:1
Work Type:2
Bank/End Point ID:0
Site ID:1
>>DocRevNum:0
>>ItemPageNum:0
>>FileTypeNum:2
>>ImageType:0
>>Compress:0
>>Xdpi:
>>Ydpi:
>>FullPath:\\omafs01\qa\RegressionTests\Online\ICON\Sample Files\Bank of Edwardsville\Dummy Images\2007492.tif
BEGIN:
>>DocTypeName:1002 - (18 digit) Madison Stub
>>DocDate:06/04/2011
Source ID:7412
Sequence Number:25
P2 Sequence:0
Applied Amount:536.89
Transaction Number:1
Orig P1 Seq Num:25
Batch Number:8502
Batch ID:8502
Amount Paid:536.89
Parcel ID:171202400000007001
Client ID:1002
Client Name:Madison County                                                                                      
Doc Grp ID:12
Document ID:21
Batch Date:06/04/2011
Process Date:06/04/2011
Applied OpID:CAR          
P2 Pocket Seq Num:0
Receive Date:06/08/2011
Deposit Date:06/08/2011
Consolidation Date:06/08/2011
Consolidation Number:1
P1 Station ID:41
P1 Operator ID:7780        
P2 Station ID:41
P2 Operator ID:7780        
Reject Job:0
Reject Reason:                                        
Audit Trail:$5,p1,CAR,,$1,p1,CAR,,                                                                                                                                                                                                                                         
Process Type:            
ARC Reason:                                                                                                                                                      
ARC Tracer:N                             
Document Type:1
Work Type:2
Bank/End Point ID:0
Site ID:1
>>DocRevNum:0
>>ItemPageNum:0
>>FileTypeNum:2
>>ImageType:0
>>Compress:0
>>Xdpi:
>>Ydpi:
>>FullPath:\\omafs01\qa\RegressionTests\Online\ICON\Sample Files\Bank of Edwardsville\Dummy Images\2007493.tif
BEGIN:
>>DocTypeName:1002 - (18 digit) Madison Stub
>>DocDate:06/04/2011
Source ID:7412
Sequence Number:8
P2 Sequence:0
Applied Amount:430.85
Transaction Number:1
Orig P1 Seq Num:8
Batch Number:8502
Batch ID:8502
Amount Paid:430.85
Parcel ID:132212601105001001
Client ID:1002
Client Name:Madison County                                                                                      
Doc Grp ID:12
Document ID:21
Batch Date:06/04/2011
Process Date:06/04/2011
Applied OpID:CAR          
P2 Pocket Seq Num:0
Receive Date:06/08/2011
Deposit Date:06/08/2011
Consolidation Date:06/08/2011
Consolidation Number:1
P1 Station ID:41
P1 Operator ID:7780        
P2 Station ID:41
P2 Operator ID:7780        
Reject Job:0
Reject Reason:                                        
Audit Trail:$5,p1,CAR,,$1,p1,CAR,,                                                                                                                                                                                                                                         
Process Type:            
ARC Reason:                                                                                                                                                      
ARC Tracer:N                             
Document Type:1
Work Type:2
Bank/End Point ID:0
Site ID:1
>>DocRevNum:0
>>ItemPageNum:0
>>FileTypeNum:2
>>ImageType:0
>>Compress:0
>>Xdpi:
>>Ydpi:
>>FullPath:\\omafs01\qa\RegressionTests\Online\ICON\Sample Files\Bank of Edwardsville\Dummy Images\2007476.tif
BEGIN:
>>DocTypeName:1002 - (18 digit) Madison Stub
>>DocDate:06/04/2011
Source ID:7412
Sequence Number:9
P2 Sequence:0
Applied Amount:430.85
Transaction Number:1
Orig P1 Seq Num:9
Batch Number:8502
Batch ID:8502
Amount Paid:430.85
Parcel ID:132212601105001001
Client ID:1002
Client Name:Madison County                                                                                      
Doc Grp ID:12
Document ID:21
Batch Date:06/04/2011
Process Date:06/04/2011
Applied OpID:CAR          
P2 Pocket Seq Num:0
Receive Date:06/08/2011
Deposit Date:06/08/2011
Consolidation Date:06/08/2011
Consolidation Number:1
P1 Station ID:41
P1 Operator ID:7780        
P2 Station ID:41
P2 Operator ID:7780        
Reject Job:0
Reject Reason:                                        
Audit Trail:$5,p1,CAR,,$1,p1,CAR,,                                                                                                                                                                                                                                         
Process Type:            
ARC Reason:                                                                                                                                                      
ARC Tracer:N                             
Document Type:1
Work Type:2
Bank/End Point ID:0
Site ID:1
>>DocRevNum:0
>>ItemPageNum:0
>>FileTypeNum:2
>>ImageType:0
>>Compress:0
>>Xdpi:
>>Ydpi:
>>FullPath:\\omafs01\qa\RegressionTests\Online\ICON\Sample Files\Bank of Edwardsville\Dummy Images\2007477.tif
BEGIN:
>>DocTypeName:1002 - (18 digit) Madison Stub
>>DocDate:06/04/2011
Source ID:7412
Sequence Number:10
P2 Sequence:0
Applied Amount:430.85
Transaction Number:1
Orig P1 Seq Num:10
Batch Number:8502
Batch ID:8502
Amount Paid:430.85
Parcel ID:132212601105001001
Client ID:1002
Client Name:Madison County                                                                                      
Doc Grp ID:12
Document ID:21
Batch Date:06/04/2011
Process Date:06/04/2011
Applied OpID:CAR          
P2 Pocket Seq Num:0
Receive Date:06/08/2011
Deposit Date:06/08/2011
Consolidation Date:06/08/2011
Consolidation Number:1
P1 Station ID:41
P1 Operator ID:7780        
P2 Station ID:41
P2 Operator ID:7780        
Reject Job:0
Reject Reason:                                        
Audit Trail:$5,p1,CAR,,$1,p1,CAR,,                                                                                                                                                                                                                                         
Process Type:            
ARC Reason:                                                                                                                                                      
ARC Tracer:N                             
Document Type:1
Work Type:2
Bank/End Point ID:0
Site ID:1
>>DocRevNum:0
>>ItemPageNum:0
>>FileTypeNum:2
>>ImageType:0
>>Compress:0
>>Xdpi:
>>Ydpi:
>>FullPath:\\omafs01\qa\RegressionTests\Online\ICON\Sample Files\Bank of Edwardsville\Dummy Images\2007478.tif
BEGIN:
>>DocTypeName:1002 - (15 Digit) Madison Stub
>>DocDate:06/04/2011
Source ID:7412
Sequence Number:12
P2 Sequence:0
Applied Amount:102.89
Transaction Number:1
Orig P1 Seq Num:12
Batch Number:8502
Batch ID:8502
Amount Paid:102.89
Parcel ID:132212710101019
Client ID:1002
Client Name:Madison County                                                                                      
Doc Grp ID:12
Document ID:22
Batch Date:06/04/2011
Process Date:06/04/2011
Applied OpID:CAR          
P2 Pocket Seq Num:0
Receive Date:06/08/2011
Deposit Date:06/08/2011
Consolidation Date:06/08/2011
Consolidation Number:1
P1 Station ID:41
P1 Operator ID:7780        
P2 Station ID:41
P2 Operator ID:7780        
Reject Job:0
Reject Reason:                                        
Audit Trail:$5,p1,CAR,,$1,p1,CAR,,                                                                                                                                                                                                                                         
Process Type:            
ARC Reason:                                                                                                                                                      
ARC Tracer:N                             
Document Type:1
Work Type:2
Bank/End Point ID:0
Site ID:1
>>DocRevNum:0
>>ItemPageNum:0
>>FileTypeNum:2
>>ImageType:0
>>Compress:0
>>Xdpi:
>>Ydpi:
>>FullPath:\\omafs01\qa\RegressionTests\Online\ICON\Sample Files\Bank of Edwardsville\Dummy Images\2007480.tif
BEGIN:
>>DocTypeName:1002 - (15 Digit) Madison Stub
>>DocDate:06/04/2011
Source ID:7412
Sequence Number:13
P2 Sequence:0
Applied Amount:102.89
Transaction Number:1
Orig P1 Seq Num:13
Batch Number:8502
Batch ID:8502
Amount Paid:102.89
Parcel ID:132212710101019
Client ID:1002
Client Name:Madison County                                                                                      
Doc Grp ID:12
Document ID:22
Batch Date:06/04/2011
Process Date:06/04/2011
Applied OpID:CAR          
P2 Pocket Seq Num:0
Receive Date:06/08/2011
Deposit Date:06/08/2011
Consolidation Date:06/08/2011
Consolidation Number:1
P1 Station ID:41
P1 Operator ID:7780        
P2 Station ID:41
P2 Operator ID:7780        
Reject Job:0
Reject Reason:                                        
Audit Trail:$5,p1,CAR,,$1,p1,CAR,,                                                                                                                                                                                                                                         
Process Type:            
ARC Reason:                                                                                                                                                      
ARC Tracer:N                             
Document Type:1
Work Type:2
Bank/End Point ID:0
Site ID:1
>>DocRevNum:0
>>ItemPageNum:0
>>FileTypeNum:2
>>ImageType:0
>>Compress:0
>>Xdpi:
>>Ydpi:
>>FullPath:\\omafs01\qa\RegressionTests\Online\ICON\Sample Files\Bank of Edwardsville\Dummy Images\2007481.tif
BEGIN:
>>DocTypeName:1002 - (15 Digit) Madison Stub
>>DocDate:06/04/2011
Source ID:7412
Sequence Number:14
P2 Sequence:0
Applied Amount:102.89
Transaction Number:1
Orig P1 Seq Num:14
Batch Number:8502
Batch ID:8502
Amount Paid:102.89
Parcel ID:132212710101019
Client ID:1002
Client Name:Madison County                                                                                      
Doc Grp ID:12
Document ID:22
Batch Date:06/04/2011
Process Date:06/04/2011
Applied OpID:CAR          
P2 Pocket Seq Num:0
Receive Date:06/08/2011
Deposit Date:06/08/2011
Consolidation Date:06/08/2011
Consolidation Number:1
P1 Station ID:41
P1 Operator ID:7780        
P2 Station ID:41
P2 Operator ID:7780        
Reject Job:0
Reject Reason:                                        
Audit Trail:$5,p1,CAR,,$1,p1,CAR,,                                                                                                                                                                                                                                         
Process Type:            
ARC Reason:                                                                                                                                                      
ARC Tracer:N                             
Document Type:1
Work Type:2
Bank/End Point ID:0
Site ID:1
>>DocRevNum:0
>>ItemPageNum:0
>>FileTypeNum:2
>>ImageType:0
>>Compress:0
>>Xdpi:
>>Ydpi:
>>FullPath:\\omafs01\qa\RegressionTests\Online\ICON\Sample Files\Bank of Edwardsville\Dummy Images\2007482.tif
BEGIN:
>>DocTypeName:1002 - (15 Digit) Madison Stub
>>DocDate:06/04/2011
Source ID:7412
Sequence Number:15
P2 Sequence:0
Applied Amount:102.89
Transaction Number:1
Orig P1 Seq Num:15
Batch Number:8502
Batch ID:8502
Amount Paid:102.89
Parcel ID:132212710101019
Client ID:1002
Client Name:Madison County                                                                                      
Doc Grp ID:12
Document ID:22
Batch Date:06/04/2011
Process Date:06/04/2011
Applied OpID:CAR          
P2 Pocket Seq Num:0
Receive Date:06/08/2011
Deposit Date:06/08/2011
Consolidation Date:06/08/2011
Consolidation Number:1
P1 Station ID:41
P1 Operator ID:7780        
P2 Station ID:41
P2 Operator ID:7780        
Reject Job:0
Reject Reason:                                        
Audit Trail:$5,p1,CAR,,$1,p1,CAR,,                                                                                                                                                                                                                                         
Process Type:            
ARC Reason:                                                                                                                                                      
ARC Tracer:N                             
Document Type:1
Work Type:2
Bank/End Point ID:0
Site ID:1
>>DocRevNum:0
>>ItemPageNum:0
>>FileTypeNum:2
>>ImageType:0
>>Compress:0
>>Xdpi:
>>Ydpi:
>>FullPath:\\omafs01\qa\RegressionTests\Online\ICON\Sample Files\Bank of Edwardsville\Dummy Images\2007483.tif
BEGIN:
>>DocTypeName:1002 - (15 Digit) Madison Stub
>>DocDate:06/04/2011
Source ID:7412
Sequence Number:17
P2 Sequence:0
Applied Amount:550.30
Transaction Number:1
Orig P1 Seq Num:17
Batch Number:8502
Batch ID:8502
Amount Paid:550.30
Parcel ID:132212317301003
Client ID:1002
Client Name:Madison County                                                                                      
Doc Grp ID:12
Document ID:22
Batch Date:06/04/2011
Process Date:06/04/2011
Applied OpID:CAR          
P2 Pocket Seq Num:0
Receive Date:06/08/2011
Deposit Date:06/08/2011
Consolidation Date:06/08/2011
Consolidation Number:1
P1 Station ID:41
P1 Operator ID:7780        
P2 Station ID:41
P2 Operator ID:7780        
Reject Job:0
Reject Reason:                                        
Audit Trail:$5,p1,CAR,,$1,p1,CAR,,                                                                                                                                                                                                                                         
Process Type:            
ARC Reason:                                                                                                                                                      
ARC Tracer:N                             
Document Type:1
Work Type:2
Bank/End Point ID:0
Site ID:1
>>DocRevNum:0
>>ItemPageNum:0
>>FileTypeNum:2
>>ImageType:0
>>Compress:0
>>Xdpi:
>>Ydpi:
>>FullPath:\\omafs01\qa\RegressionTests\Online\ICON\Sample Files\Bank of Edwardsville\Dummy Images\2007485.tif
BEGIN:
>>DocTypeName:1002 - (15 Digit) Madison Stub
>>DocDate:06/04/2011
Source ID:7412
Sequence Number:18
P2 Sequence:0
Applied Amount:106.06
Transaction Number:1
Orig P1 Seq Num:18
Batch Number:8502
Batch ID:8502
Amount Paid:106.06
Parcel ID:171202400000007
Client ID:1002
Client Name:Madison County                                                                                      
Doc Grp ID:12
Document ID:22
Batch Date:06/04/2011
Process Date:06/04/2011
Applied OpID:CAR          
P2 Pocket Seq Num:0
Receive Date:06/08/2011
Deposit Date:06/08/2011
Consolidation Date:06/08/2011
Consolidation Number:1
P1 Station ID:41
P1 Operator ID:7780        
P2 Station ID:41
P2 Operator ID:7780        
Reject Job:0
Reject Reason:                                        
Audit Trail:$5,p1,CAR,,$1,p1,CAR,,                                                                                                                                                                                                                                         
Process Type:            
ARC Reason:                                                                                                                                                      
ARC Tracer:N                             
Document Type:1
Work Type:2
Bank/End Point ID:0
Site ID:1
>>DocRevNum:0
>>ItemPageNum:0
>>FileTypeNum:2
>>ImageType:0
>>Compress:0
>>Xdpi:
>>Ydpi:
>>FullPath:\\omafs01\qa\RegressionTests\Online\ICON\Sample Files\Bank of Edwardsville\Dummy Images\2007486.tif
BEGIN:
>>DocTypeName:1002 - (15 Digit) Madison Stub
>>DocDate:06/04/2011
Source ID:7412
Sequence Number:19
P2 Sequence:0
Applied Amount:106.06
Transaction Number:1
Orig P1 Seq Num:19
Batch Number:8502
Batch ID:8502
Amount Paid:106.06
Parcel ID:171202400000007
Client ID:1002
Client Name:Madison County                                                                                      
Doc Grp ID:12
Document ID:22
Batch Date:06/04/2011
Process Date:06/04/2011
Applied OpID:CAR          
P2 Pocket Seq Num:0
Receive Date:06/08/2011
Deposit Date:06/08/2011
Consolidation Date:06/08/2011
Consolidation Number:1
P1 Station ID:41
P1 Operator ID:7780        
P2 Station ID:41
P2 Operator ID:7780        
Reject Job:0
Reject Reason:                                        
Audit Trail:$5,p1,CAR,,$1,p1,CAR,,                                                                                                                                                                                                                                         
Process Type:            
ARC Reason:                                                                                                                                                      
ARC Tracer:N                             
Document Type:1
Work Type:2
Bank/End Point ID:0
Site ID:1
>>DocRevNum:0
>>ItemPageNum:0
>>FileTypeNum:2
>>ImageType:0
>>Compress:0
>>Xdpi:
>>Ydpi:
>>FullPath:\\omafs01\qa\RegressionTests\Online\ICON\Sample Files\Bank of Edwardsville\Dummy Images\2007487.tif
BEGIN:
>>DocTypeName:1002 - (15 Digit) Madison Stub
>>DocDate:06/04/2011
Source ID:7412
Sequence Number:20
P2 Sequence:0
Applied Amount:106.06
Transaction Number:1
Orig P1 Seq Num:20
Batch Number:8502
Batch ID:8502
Amount Paid:106.06
Parcel ID:171202400000007
Client ID:1002
Client Name:Madison County                                                                                      
Doc Grp ID:12
Document ID:22
Batch Date:06/04/2011
Process Date:06/04/2011
Applied OpID:CAR          
P2 Pocket Seq Num:0
Receive Date:06/08/2011
Deposit Date:06/08/2011
Consolidation Date:06/08/2011
Consolidation Number:1
P1 Station ID:41
P1 Operator ID:7780        
P2 Station ID:41
P2 Operator ID:7780        
Reject Job:0
Reject Reason:                                        
Audit Trail:$5,p1,CAR,,$1,p1,CAR,,                                                                                                                                                                                                                                         
Process Type:            
ARC Reason:                                                                                                                                                      
ARC Tracer:N                             
Document Type:1
Work Type:2
Bank/End Point ID:0
Site ID:1
>>DocRevNum:0
>>ItemPageNum:0
>>FileTypeNum:2
>>ImageType:0
>>Compress:0
>>Xdpi:
>>Ydpi:
>>FullPath:\\omafs01\qa\RegressionTests\Online\ICON\Sample Files\Bank of Edwardsville\Dummy Images\2007488.tif
BEGIN:
>>DocTypeName:1002 - (15 Digit) Madison Stub
>>DocDate:06/04/2011
Source ID:7412
Sequence Number:21
P2 Sequence:0
Applied Amount:106.06
Transaction Number:1
Orig P1 Seq Num:21
Batch Number:8502
Batch ID:8502
Amount Paid:106.06
Parcel ID:171202400000007
Client ID:1002
Client Name:Madison County                                                                                      
Doc Grp ID:12
Document ID:22
Batch Date:06/04/2011
Process Date:06/04/2011
Applied OpID:CAR          
P2 Pocket Seq Num:0
Receive Date:06/08/2011
Deposit Date:06/08/2011
Consolidation Date:06/08/2011
Consolidation Number:1
P1 Station ID:41
P1 Operator ID:7780        
P2 Station ID:41
P2 Operator ID:7780        
Reject Job:0
Reject Reason:                                        
Audit Trail:$5,p1,CAR,,$1,p1,CAR,,                                                                                                                                                                                                                                         
Process Type:            
ARC Reason:                                                                                                                                                      
ARC Tracer:N                             
Document Type:1
Work Type:2
Bank/End Point ID:0
Site ID:1
>>DocRevNum:0
>>ItemPageNum:0
>>FileTypeNum:2
>>ImageType:0
>>Compress:0
>>Xdpi:
>>Ydpi:
>>FullPath:\\omafs01\qa\RegressionTests\Online\ICON\Sample Files\Bank of Edwardsville\Dummy Images\2007489.tif
BEGIN:
>>DocTypeName:1002 - (15 Digit) Madison Stub
>>DocDate:06/04/2011
Source ID:7412
Sequence Number:26
P2 Sequence:0
Applied Amount:636.95
Transaction Number:1
Orig P1 Seq Num:26
Batch Number:8502
Batch ID:8502
Amount Paid:636.95
Parcel ID:171202400000013
Client ID:1002
Client Name:Madison County                                                                                      
Doc Grp ID:12
Document ID:22
Batch Date:06/04/2011
Process Date:06/04/2011
Applied OpID:CAR          
P2 Pocket Seq Num:0
Receive Date:06/08/2011
Deposit Date:06/08/2011
Consolidation Date:06/08/2011
Consolidation Number:1
P1 Station ID:41
P1 Operator ID:7780        
P2 Station ID:41
P2 Operator ID:7780        
Reject Job:0
Reject Reason:                                        
Audit Trail:$5,p1,CAR,,$1,p1,CAR,,                                                                                                                                                                                                                                         
Process Type:            
ARC Reason:                                                                                                                                                      
ARC Tracer:N                             
Document Type:1
Work Type:2
Bank/End Point ID:0
Site ID:1
>>DocRevNum:0
>>ItemPageNum:0
>>FileTypeNum:2
>>ImageType:0
>>Compress:0
>>Xdpi:
>>Ydpi:
>>FullPath:\\omafs01\qa\RegressionTests\Online\ICON\Sample Files\Bank of Edwardsville\Dummy Images\2007494.tif
BEGIN:
>>DocTypeName:1002 - (15 Digit) Madison Stub
>>DocDate:06/04/2011
Source ID:7412
Sequence Number:27
P2 Sequence:0
Applied Amount:636.95
Transaction Number:1
Orig P1 Seq Num:27
Batch Number:8502
Batch ID:8502
Amount Paid:636.95
Parcel ID:171202400000013
Client ID:1002
Client Name:Madison County                                                                                      
Doc Grp ID:12
Document ID:22
Batch Date:06/04/2011
Process Date:06/04/2011
Applied OpID:CAR          
P2 Pocket Seq Num:0
Receive Date:06/08/2011
Deposit Date:06/08/2011
Consolidation Date:06/08/2011
Consolidation Number:1
P1 Station ID:41
P1 Operator ID:7780        
P2 Station ID:41
P2 Operator ID:7780        
Reject Job:0
Reject Reason:                                        
Audit Trail:$5,p1,CAR,,$1,p1,CAR,,                                                                                                                                                                                                                                         
Process Type:            
ARC Reason:                                                                                                                                                      
ARC Tracer:N                             
Document Type:1
Work Type:2
Bank/End Point ID:0
Site ID:1
>>DocRevNum:0
>>ItemPageNum:0
>>FileTypeNum:2
>>ImageType:0
>>Compress:0
>>Xdpi:
>>Ydpi:
>>FullPath:\\omafs01\qa\RegressionTests\Online\ICON\Sample Files\Bank of Edwardsville\Dummy Images\2007495.tif
BEGIN:
>>DocTypeName:1002 - (15 Digit) Madison Stub
>>DocDate:06/04/2011
Source ID:7412
Sequence Number:28
P2 Sequence:0
Applied Amount:636.95
Transaction Number:1
Orig P1 Seq Num:28
Batch Number:8502
Batch ID:8502
Amount Paid:636.95
Parcel ID:171202400000013
Client ID:1002
Client Name:Madison County                                                                                      
Doc Grp ID:12
Document ID:22
Batch Date:06/04/2011
Process Date:06/04/2011
Applied OpID:CAR          
P2 Pocket Seq Num:0
Receive Date:06/08/2011
Deposit Date:06/08/2011
Consolidation Date:06/08/2011
Consolidation Number:1
P1 Station ID:41
P1 Operator ID:7780        
P2 Station ID:41
P2 Operator ID:7780        
Reject Job:0
Reject Reason:                                        
Audit Trail:$5,p1,CAR,,$1,p1,CAR,,                                                                                                                                                                                                                                         
Process Type:            
ARC Reason:                                                                                                                                                      
ARC Tracer:N                             
Document Type:1
Work Type:2
Bank/End Point ID:0
Site ID:1
>>DocRevNum:0
>>ItemPageNum:0
>>FileTypeNum:2
>>ImageType:0
>>Compress:0
>>Xdpi:
>>Ydpi:
>>FullPath:\\omafs01\qa\RegressionTests\Online\ICON\Sample Files\Bank of Edwardsville\Dummy Images\2007496.tif
BEGIN:
>>DocTypeName:1002 - (15 Digit) Madison Stub
>>DocDate:06/04/2011
Source ID:7412
Sequence Number:29
P2 Sequence:0
Applied Amount:636.95
Transaction Number:1
Orig P1 Seq Num:29
Batch Number:8502
Batch ID:8502
Amount Paid:636.95
Parcel ID:171202400000013
Client ID:1002
Client Name:Madison County                                                                                      
Doc Grp ID:12
Document ID:22
Batch Date:06/04/2011
Process Date:06/04/2011
Applied OpID:CAR          
P2 Pocket Seq Num:0
Receive Date:06/08/2011
Deposit Date:06/08/2011
Consolidation Date:06/08/2011
Consolidation Number:1
P1 Station ID:41
P1 Operator ID:7780        
P2 Station ID:41
P2 Operator ID:7780        
Reject Job:0
Reject Reason:                                        
Audit Trail:$5,p1,CAR,,$1,p1,CAR,,                                                                                                                                                                                                                                         
Process Type:            
ARC Reason:                                                                                                                                                      
ARC Tracer:N                             
Document Type:1
Work Type:2
Bank/End Point ID:0
Site ID:1
>>DocRevNum:0
>>ItemPageNum:0
>>FileTypeNum:2
>>ImageType:0
>>Compress:0
>>Xdpi:
>>Ydpi:
>>FullPath:\\omafs01\qa\RegressionTests\Online\ICON\Sample Files\Bank of Edwardsville\Dummy Images\2007497.tif
BEGIN:
>>DocTypeName:1002 - (15 Digit) Madison Stub
>>DocDate:06/04/2011
Source ID:7412
Sequence Number:1
P2 Sequence:0
Applied Amount:115.32
Transaction Number:1
Orig P1 Seq Num:1
Batch Number:8502
Batch ID:8502
Amount Paid:115.32
Parcel ID:132212601102022
Client ID:1002
Client Name:Madison County                                                                                      
Doc Grp ID:12
Document ID:22
Batch Date:06/04/2011
Process Date:06/04/2011
Applied OpID:CAR          
P2 Pocket Seq Num:0
Receive Date:06/08/2011
Deposit Date:06/08/2011
Consolidation Date:06/08/2011
Consolidation Number:1
P1 Station ID:41
P1 Operator ID:7780        
P2 Station ID:41
P2 Operator ID:7780        
Reject Job:0
Reject Reason:                                        
Audit Trail:$5,p1,CAR,,$1,p1,CAR,,                                                                                                                                                                                                                                         
Process Type:            
ARC Reason:                                                                                                                                                      
ARC Tracer:N                             
Document Type:1
Work Type:2
Bank/End Point ID:0
Site ID:1
>>DocRevNum:0
>>ItemPageNum:0
>>FileTypeNum:2
>>ImageType:0
>>Compress:0
>>Xdpi:
>>Ydpi:
>>FullPath:\\omafs01\qa\RegressionTests\Online\ICON\Sample Files\Bank of Edwardsville\Dummy Images\2007469.tif
BEGIN:
>>DocTypeName:1002 - (15 Digit) Madison Stub
>>DocDate:06/04/2011
Source ID:7412
Sequence Number:2
P2 Sequence:0
Applied Amount:115.32
Transaction Number:1
Orig P1 Seq Num:2
Batch Number:8502
Batch ID:8502
Amount Paid:115.32
Parcel ID:132212601102022
Client ID:1002
Client Name:Madison County                                                                                      
Doc Grp ID:12
Document ID:22
Batch Date:06/04/2011
Process Date:06/04/2011
Applied OpID:CAR          
P2 Pocket Seq Num:0
Receive Date:06/08/2011
Deposit Date:06/08/2011
Consolidation Date:06/08/2011
Consolidation Number:1
P1 Station ID:41
P1 Operator ID:7780        
P2 Station ID:41
P2 Operator ID:7780        
Reject Job:0
Reject Reason:                                        
Audit Trail:$5,p1,CAR,,$1,p1,CAR,,                                                                                                                                                                                                                                         
Process Type:            
ARC Reason:                                                                                                                                                      
ARC Tracer:N                             
Document Type:1
Work Type:2
Bank/End Point ID:0
Site ID:1
>>DocRevNum:0
>>ItemPageNum:0
>>FileTypeNum:2
>>ImageType:0
>>Compress:0
>>Xdpi:
>>Ydpi:
>>FullPath:\\omafs01\qa\RegressionTests\Online\ICON\Sample Files\Bank of Edwardsville\Dummy Images\2007470.tif
BEGIN:
>>DocTypeName:1002 - (15 Digit) Madison Stub
>>DocDate:06/04/2011
Source ID:7412
Sequence Number:3
P2 Sequence:0
Applied Amount:115.32
Transaction Number:1
Orig P1 Seq Num:3
Batch Number:8502
Batch ID:8502
Amount Paid:115.32
Parcel ID:132212601102022
Client ID:1002
Client Name:Madison County                                                                                      
Doc Grp ID:12
Document ID:22
Batch Date:06/04/2011
Process Date:06/04/2011
Applied OpID:CAR          
P2 Pocket Seq Num:0
Receive Date:06/08/2011
Deposit Date:06/08/2011
Consolidation Date:06/08/2011
Consolidation Number:1
P1 Station ID:41
P1 Operator ID:7780        
P2 Station ID:41
P2 Operator ID:7780        
Reject Job:0
Reject Reason:                                        
Audit Trail:$5,p1,CAR,,$1,p1,CAR,,                                                                                                                                                                                                                                         
Process Type:            
ARC Reason:                                                                                                                                                      
ARC Tracer:N                             
Document Type:1
Work Type:2
Bank/End Point ID:0
Site ID:1
>>DocRevNum:0
>>ItemPageNum:0
>>FileTypeNum:2
>>ImageType:0
>>Compress:0
>>Xdpi:
>>Ydpi:
>>FullPath:\\omafs01\qa\RegressionTests\Online\ICON\Sample Files\Bank of Edwardsville\Dummy Images\2007471.tif
BEGIN:
>>DocTypeName:1002 - (15 Digit) Madison Stub
>>DocDate:06/04/2011
Source ID:7412
Sequence Number:4
P2 Sequence:0
Applied Amount:115.32
Transaction Number:1
Orig P1 Seq Num:4
Batch Number:8502
Batch ID:8502
Amount Paid:115.32
Parcel ID:132212601102022
Client ID:1002
Client Name:Madison County                                                                                      
Doc Grp ID:12
Document ID:22
Batch Date:06/04/2011
Process Date:06/04/2011
Applied OpID:CAR          
P2 Pocket Seq Num:0
Receive Date:06/08/2011
Deposit Date:06/08/2011
Consolidation Date:06/08/2011
Consolidation Number:1
P1 Station ID:41
P1 Operator ID:7780        
P2 Station ID:41
P2 Operator ID:7780        
Reject Job:0
Reject Reason:                                        
Audit Trail:$5,p1,CAR,,$1,p1,CAR,,                                                                                                                                                                                                                                         
Process Type:            
ARC Reason:                                                                                                                                                      
ARC Tracer:N                             
Document Type:1
Work Type:2
Bank/End Point ID:0
Site ID:1
>>DocRevNum:0
>>ItemPageNum:0
>>FileTypeNum:2
>>ImageType:0
>>Compress:0
>>Xdpi:
>>Ydpi:
>>FullPath:\\omafs01\qa\RegressionTests\Online\ICON\Sample Files\Bank of Edwardsville\Dummy Images\2007472.tif
BEGIN:
>>DocTypeName:1002 - (15 Digit) Madison Stub
>>DocDate:06/04/2011
Source ID:7412
Sequence Number:5
P2 Sequence:0
Applied Amount:252.94
Transaction Number:1
Orig P1 Seq Num:5
Batch Number:8502
Batch ID:8502
Amount Paid:252.94
Parcel ID:132212713304031
Client ID:1002
Client Name:Madison County                                                                                      
Doc Grp ID:12
Document ID:22
Batch Date:06/04/2011
Process Date:06/04/2011
Applied OpID:CAR          
P2 Pocket Seq Num:0
Receive Date:06/08/2011
Deposit Date:06/08/2011
Consolidation Date:06/08/2011
Consolidation Number:1
P1 Station ID:41
P1 Operator ID:7780        
P2 Station ID:41
P2 Operator ID:7780        
Reject Job:0
Reject Reason:                                        
Audit Trail:$5,p1,CAR,,$1,p1,CAR,,                                                                                                                                                                                                                                         
Process Type:            
ARC Reason:                                                                                                                                                      
ARC Tracer:N                             
Document Type:1
Work Type:2
Bank/End Point ID:0
Site ID:1
>>DocRevNum:0
>>ItemPageNum:0
>>FileTypeNum:2
>>ImageType:0
>>Compress:0
>>Xdpi:
>>Ydpi:
>>FullPath:\\omafs01\qa\RegressionTests\Online\ICON\Sample Files\Bank of Edwardsville\Dummy Images\2007473.tif
BEGIN:
>>DocTypeName:1002 - (15 Digit) Madison Stub
>>DocDate:06/04/2011
Source ID:7412
Sequence Number:6
P2 Sequence:0
Applied Amount:252.94
Transaction Number:1
Orig P1 Seq Num:6
Batch Number:8502
Batch ID:8502
Amount Paid:252.94
Parcel ID:132212713304031
Client ID:1002
Client Name:Madison County                                                                                      
Doc Grp ID:12
Document ID:22
Batch Date:06/04/2011
Process Date:06/04/2011
Applied OpID:CAR          
P2 Pocket Seq Num:0
Receive Date:06/08/2011
Deposit Date:06/08/2011
Consolidation Date:06/08/2011
Consolidation Number:1
P1 Station ID:41
P1 Operator ID:7780        
P2 Station ID:41
P2 Operator ID:7780        
Reject Job:0
Reject Reason:                                        
Audit Trail:$5,p1,CAR,,$1,p1,CAR,,                                                                                                                                                                                                                                         
Process Type:            
ARC Reason:                                                                                                                                                      
ARC Tracer:N                             
Document Type:1
Work Type:2
Bank/End Point ID:0
Site ID:1
>>DocRevNum:0
>>ItemPageNum:0
>>FileTypeNum:2
>>ImageType:0
>>Compress:0
>>Xdpi:
>>Ydpi:
>>FullPath:\\omafs01\qa\RegressionTests\Online\ICON\Sample Files\Bank of Edwardsville\Dummy Images\2007474.tif
BEGIN:
>>DocTypeName:1002 - (15 Digit) Madison Stub
>>DocDate:06/04/2011
Source ID:7412
Sequence Number:7
P2 Sequence:0
Applied Amount:1,129.68
Transaction Number:1
Orig P1 Seq Num:7
Batch Number:8502
Batch ID:8502
Amount Paid:1,129.68
Parcel ID:131211600000036
Client ID:1002
Client Name:Madison County                                                                                      
Doc Grp ID:12
Document ID:22
Batch Date:06/04/2011
Process Date:06/04/2011
Applied OpID:CAR          
P2 Pocket Seq Num:0
Receive Date:06/08/2011
Deposit Date:06/08/2011
Consolidation Date:06/08/2011
Consolidation Number:1
P1 Station ID:41
P1 Operator ID:7780        
P2 Station ID:41
P2 Operator ID:7780        
Reject Job:0
Reject Reason:                                        
Audit Trail:$5,p1,CAR,,$1,p1,CAR,,                                                                                                                                                                                                                                         
Process Type:            
ARC Reason:                                                                                                                                                      
ARC Tracer:N                             
Document Type:1
Work Type:2
Bank/End Point ID:0
Site ID:1
>>DocRevNum:0
>>ItemPageNum:0
>>FileTypeNum:2
>>ImageType:0
>>Compress:0
>>Xdpi:
>>Ydpi:
>>FullPath:\\omafs01\qa\RegressionTests\Online\ICON\Sample Files\Bank of Edwardsville\Dummy Images\2007475.tif
END:
