{
	"SiteBankId":1159511,
	"SiteClientAccountId":7890001,
	"DepositDate":"@CURRENTDATE",
	"ImmutableDate":"@CURRENTDATE",
	"SourceProcessingDate":"@CURRENTDATE",
	"BatchSource":"AUTOMATIONIMAGERPS",
	"PaymentType":"Lockbox",
	"BatchExceptionStatus":"NoException",
	"DepositStatusName":"Deposit Complete",
	"Batches":
	[
		{
			"SourceBatchId":90016,
			"BatchNumber":90016,
			"TransactionExceptionStatus":"NoException",
			"Transactions":
			[
				{
					"Checks":
					[
						{"Amount":94.56, "RoutingNumber":"", "Account":"", "Serial":"002989", "ABA":"", "DDA":"{DDA}"}
					]
				},
				{
					"Checks":
					[
						{"Amount":94.56, "RoutingNumber":"", "Account":"", "Serial":"002989", "ABA":"", "DDA":"{DDA}"}
					]
				},
				{
					"Checks":
					[
						{"Amount":94.56, "RoutingNumber":"", "Account":"", "Serial":"002989", "ABA":"", "DDA":"{DDA}"}
					]
				},
				{
					"Checks":
					[
						{"Amount":94.56, "RoutingNumber":"", "Account":"", "Serial":"002989", "ABA":"", "DDA":"{DDA}"}
					]
				}
			]
		}
	]
}