{
	"SiteBankId":999,
	"SiteClientAccountId":92,
	"DepositDate":"@CURRENTDATE",
	"ImmutableDate":"@CURRENTDATE",
	"SourceProcessingDate":"@CURRENTDATE",
	"BatchSource":"GenericElkhorn",
	"PaymentType":"SWIFT",
	"BatchExceptionStatus":"NoException",
	"DepositStatusName":"Deposit Complete",
	"Batches":
	[
		{
			"SourceBatchId":44,
			"BatchNumber":84,
			"TransactionExceptionStatus":"NoException",
			"Transactions":
			[
				{
					"Checks":
					[
						{"Amount":0.02, "RoutingNumber":"7508220", "Account":"297746", "Serial":"15", "TransactionCode":"1", "ABA":"072001768", "DDA":"0123456668"},
						{"Amount":7820.48, "RoutingNumber":"12783080", "Account":"4171948", "Serial":"488", "TransactionCode":"1", "ABA":"072001768", "DDA":"0123456668"}
					]
				},
				{
					"Checks":
					[
						{"Amount":60689.36, "RoutingNumber":"50", "Account":"1", "Serial":"488", "TransactionCode":"1", "ABA":"072001768", "DDA":"0123456668"},
						{"Amount":852802.40, "RoutingNumber":"98561411", "Account":"391", "Serial":"596360913", "TransactionCode":"1", "ABA":"072001768", "DDA":"0123456668"}
					]
				}
			]
		},
		{
			"SourceBatchId":83,
			"BatchNumber":24,
			"TransactionExceptionStatus":"NoException",
			"Transactions":
			[
				{
					"Checks":
					[
						{"Amount":181.10, "RoutingNumber":"11", "Account":"6", "Serial":"1", "TransactionCode":"1", "ABA":"072001768", "DDA":"0123456668"},
						{"Amount":44796.91, "RoutingNumber":"8921974", "Account":"256", "Serial":"2", "TransactionCode":"1", "ABA":"072001768", "DDA":"0123456668"}
					]
				},
				{
					"Checks":
					[
						{"Amount":9501.14, "RoutingNumber":"59173", "Account":"85007", "Serial":"7", "TransactionCode":"1", "ABA":"072001768", "DDA":"0123456668"},
						{"Amount":1.76, "RoutingNumber":"454", "Account":"459014107", "Serial":"6261817", "TransactionCode":"1", "ABA":"072001768", "DDA":"0123456668"}
					]
				}
			]
		},
		{
			"SourceBatchId":95,
			"BatchNumber":68,
			"TransactionExceptionStatus":"NoException",
			"Transactions":
			[
				{
					"Checks":
					[
						{"Amount":9406.55, "RoutingNumber":"80", "Account":"2020977", "Serial":"9844263", "TransactionCode":"1", "ABA":"072001768", "DDA":"0123456668"},
						{"Amount":0.27, "RoutingNumber":"520725510", "Account":"4316966", "Serial":"891397", "TransactionCode":"1", "ABA":"072001768", "DDA":"0123456668"}
					]
				},
				{
					"Checks":
					[
						{"Amount":0.06, "RoutingNumber":"33515", "Account":"978480935", "Serial":"98914318", "TransactionCode":"1", "ABA":"072001768", "DDA":"0123456668"},
						{"Amount":43.23, "RoutingNumber":"6417268", "Account":"59689", "Serial":"77078997", "TransactionCode":"1", "ABA":"072001768", "DDA":"0123456668"}
					]
				}
			]
		},
		{
			"SourceBatchId":206,
			"BatchNumber":206,
			"TransactionExceptionStatus":"NoException",
			"Transactions":
			[
				{
					"Checks":
					[
						{"Amount":21.83, "RoutingNumber":"109090909", "Account":"12345", "Serial":"223456789", "TransactionCode":"1", "ABA":"179000099", "DDA":"904676648"}
					]
				}
			]
		}
	]
}