{
	"SiteBankId":1159511,
	"SiteClientAccountId":33338888,
	"DepositDate":"@CURRENTDATE",
	"ImmutableDate":"@CURRENTDATE",
	"SourceProcessingDate":"@CURRENTDATE",
	"BatchSource":"AutomationACH",
	"PaymentType":"ACH",
	"BatchExceptionStatus":"NoException",
	"DepositStatusName":"Deposit Complete",
	"Batches":
	[
		{
			"SourceBatchId":2929,
			"BatchNumber":2929,
			"TransactionExceptionStatus":"NoException",
			"Transactions":
			[
				{
					"Checks":
					[
						{"Amount":6326.46, "RoutingNumber":"", "Account":"", "Serial":"091001846858009", "ABA":"042002939", "DDA":"00000009112345667"}
					]
				},
				{
					"Checks":
					[
						{"Amount":6144.00, "RoutingNumber":"", "Account":"", "Serial":"091018463558019", "ABA":"042002939", "DDA":"00000009112345667"}
					]
				},
				{
					"Checks":
					[
						{"Amount":616.45, "RoutingNumber":"", "Account":"", "Serial":"091001846738135", "ABA":"042002939", "DDA":"00000009112345667"}
					]
				}
			]
		},
		{
			"SourceBatchId":2930,
			"BatchNumber":2930,
			"TransactionExceptionStatus":"NoException",
			"Transactions":
			[
				{
					"Checks":
					[
						{"Amount":84676.10, "RoutingNumber":"", "Account":"", "Serial":"021001846972850", "ABA":"042002939", "DDA":"00000009112345667"}
					]
				}
			]
		},
		{
			"SourceBatchId":2931,
			"BatchNumber":2931,
			"TransactionExceptionStatus":"NoException",
			"Transactions":
			[
				{
					"Checks":
					[
						{"Amount":362.50, "RoutingNumber":"", "Account":"", "Serial":"021001846533150", "ABA":"042002939", "DDA":"00000009112345667"}
					]
				}
			]
		},
		{
			"SourceBatchId":2932,
			"BatchNumber":2932,
			"TransactionExceptionStatus":"NoException",
			"Transactions":
			[
				{
					"Checks":
					[
						{"Amount":1380.00, "RoutingNumber":"", "Account":"", "Serial":"091001846883925", "ABA":"042002939", "DDA":"00000009112345667"}
					]
				}
			]
		},
		{
			"SourceBatchId":2933,
			"BatchNumber":2933,
			"TransactionExceptionStatus":"NoException",
			"Transactions":
			[
				{
					"Checks":
					[
						{"Amount":9072.00, "RoutingNumber":"", "Account":"", "Serial":"111018463879466", "ABA":"042002939", "DDA":"00000009112345667"}
					]
				}
			]
		},
		{
			"SourceBatchId":2934,
			"BatchNumber":2934,
			"TransactionExceptionStatus":"NoException",
			"Transactions":
			[
				{
					"Checks":
					[
						{"Amount":1438.75, "RoutingNumber":"", "Account":"", "Serial":"111018463699509", "ABA":"042002939", "DDA":"00000009112345667"}
					]
				}
			]
		},
		{
			"SourceBatchId":2935,
			"BatchNumber":2935,
			"TransactionExceptionStatus":"NoException",
			"Transactions":
			[
				{
					"Checks":
					[
						{"Amount":10287.90, "RoutingNumber":"", "Account":"", "Serial":"071341846968189", "ABA":"042002939", "DDA":"00000009112345667"}
					]
				}
			]
		},
		{
			"SourceBatchId":2936,
			"BatchNumber":2936,
			"TransactionExceptionStatus":"NoException",
			"Transactions":
			[
				{
					"Checks":
					[
						{"Amount":460.00, "RoutingNumber":"", "Account":"", "Serial":"018469413672170", "ABA":"042002939", "DDA":"00000009112345667"}
					]
				}
			]
		},
		{
			"SourceBatchId":2937,
			"BatchNumber":2937,
			"TransactionExceptionStatus":"NoException",
			"Transactions":
			[
				{
					"Checks":
					[
						{"Amount":1916.48, "RoutingNumber":"", "Account":"", "Serial":"091001846899492", "ABA":"042002939", "DDA":"00000009112345667"}
					]
				}
			]
		}
	]
}