23994477;157005;4;Color;Front;foo.tif
23994478;161291;4;Color;Front;foo1.tif
23994481;155773;4;Color;Front;foo2.tif
23994482;156078;4;Color;Front;foo3.tif
23994489;157645;4;Color;Front;foo4.tif
23995181;113564;4;Color;Front;test1.tif
23995182;116842;4;Color;Front;test2.tif
23995183;114209;4;Color;Front;test3.tif
23995180;115703;4;Color;Front;test4.tif
24034273;2662;2;Bitonal;Front;zzz1.tif
24034274;2680;2;Bitonal;Front;zzz2.tif
24034276;2674;2;Bitonal;Front;zzz3.tif
24034277;2684;2;Bitonal;Front;zzz4.tif
24034278;2690;2;Bitonal;Front;zzz5.tif
24034279;2666;2;Bitonal;Front;zzz6.tif
24034280;2690;2;Bitonal;Front;zzz7.tif
24034281;2690;2;Bitonal;Front;zzz8.tif
24034282;2704;2;Bitonal;Front;zzz9.tif
24034283;2688;2;Bitonal;Front;zzz10.tif
24034284;2706;2;Bitonal;Front;zzz11.tif
24034285;2712;2;Bitonal;Front;zzz12.tif
24034286;2662;2;Bitonal;Front;zzz13.tif
24034287;2680;2;Bitonal;Front;zzz14.tif
24034288;2674;2;Bitonal;Front;zzz14.tif
24034289;2684;2;Bitonal;Front;zzz15.tif
24034290;2666;2;Bitonal;Front;zzz16.tif
24034291;2690;2;Bitonal;Front;zzz17.tif
24034292;2690;2;Bitonal;Front;zzz18.tif
24034293;2704;2;Bitonal;Front;zzz19.tif
24034294;2688;2;Bitonal;Front;zzz20.tif
24034295;2706;2;Bitonal;Front;zzz21.tif
24034296;2712;2;Bitonal;Front;zzz22.tif
24034297;2712;2;Bitonal;Front;zzz23.tif
24034298;2684;2;Bitonal;Front;zzz24.tif
24034299;2690;2;Bitonal;Front;zzz25.tif
24034300;2666;2;Bitonal;Front;zzz26.tif
24034301;2690;2;Bitonal;Front;zzz27.tif
24034302;2690;2;Bitonal;Front;zzz28.tif
24034303;2704;2;Bitonal;Front;zzz29.tif
24034304;2688;2;Bitonal;Front;zzz30.tif
24034305;2706;2;Bitonal;Front;zzz31.tif
24034306;2712;2;Bitonal;Front;zzz32.tif
24034307;2712;2;Bitonal;Front;zzz33.tif
24034308;2684;2;Bitonal;Front;zzz34.tif
24034309;2690;2;Bitonal;Front;zzz35.tif
24034310;2666;2;Bitonal;Front;zzz36.tif
24034311;2690;2;Bitonal;Front;zzz37.tif
24034312;2690;2;Bitonal;Front;zzz38.tif
24034313;2704;2;Bitonal;Front;zzz39.tif
24034314;2688;2;Bitonal;Front;zzz40.tif
24034315;2706;2;Bitonal;Front;zzz41.tif
24034316;2712;2;Bitonal;Front;zzz42.tif
24034317;2712;2;Bitonal;Front;zzz43.tif
24034318;2684;2;Bitonal;Front;zzz44.tif
24034319;2690;2;Bitonal;Front;zzz45.tif
24034320;2666;2;Bitonal;Front;zzz46.tif
24034321;2690;2;Bitonal;Front;zzz47.tif
24034322;2690;2;Bitonal;Front;zzz48.tif
24575563;115703;1;Bitonal;Front;abc1.tif
24575564;113564;1;Bitonal;Front;abc2.tif
24575565;116842;1;Bitonal;Front;abc3.tif
24575566;114209;1;Bitonal;Front;abc4.tif
24575195;114209;5;Color;Front;def1.tif
24575196;114209;5;Color;Front;def2.tif
24575197;114209;5;Color;Front;def3.tif
24575198;114209;5;Color;Front;def4.tif
24575199;114209;5;Color;Front;def5.tif
24575200;114209;5;Color;Front;def6.tif
24575201;114209;5;Color;Front;def7.tif
24575202;114209;5;Color;Front;def8.tif
24575202;114209;5;Color;Front;def9.tif
24575203;114209;5;Color;Front;def10.tif
24575204;114209;5;Color;Front;def11.tif
24575205;114209;5;Color;Front;def12.tif
24575206;114209;5;Color;Front;def13.tif
24575207;114209;5;Color;Front;def14.tif
24575208;114209;5;Color;Front;def15.tif
24575209;114209;5;Color;Front;def16.tif
24575210;114209;5;Color;Front;def17.tif
24575211;114209;5;Color;Front;def18.tif
24575212;114209;5;Color;Front;def19.tif
24575213;114209;5;Color;Front;def20.tif
24575214;114209;5;Color;Front;def21.tif
24575215;114209;5;Color;Front;def22.tif
24575216;114209;5;Color;Front;def23.tif
24575217;114209;5;Color;Front;def24.tif
24575218;114209;5;Color;Front;def25.tif
24575219;114209;5;Color;Front;def26.tif
24575220;114209;5;Color;Front;def27.tif
24575221;114209;5;Color;Front;def28.tif
24575222;114209;5;Color;Front;def29.tif
24575223;114209;5;Color;Front;def30.tif
24575224;114209;5;Color;Front;def31.tif
24575225;114209;5;Color;Front;def32.tif
24575226;114209;5;Color;Front;def33.tif
24575227;114209;5;Color;Front;def34.tif
24575228;114209;5;Color;Front;def35.tif
24575229;114209;5;Color;Front;def36.tif
24575230;114209;5;Color;Front;def37.tif
24575231;114209;5;Color;Front;def38.tif
24575232;114209;5;Color;Front;def39.tif
24575233;114209;5;Color;Front;def40.tif
24575234;114209;5;Color;Front;def41.tif
24575235;114209;5;Color;Front;def42.tif
24575236;114209;5;Color;Front;def43.tif
24575237;114209;5;Color;Front;def44.tif
24575238;114209;5;Color;Front;def45.tif
24575239;114209;5;Color;Front;def46.tif
24575240;114209;5;Color;Front;def47.tif
24575241;114209;5;Color;Front;def48.tif
24575242;114209;5;Color;Front;def49.tif
24575243;114209;5;Color;Front;def50.tif
24575244;114209;5;Color;Front;def51.tif
24575244;114209;5;Color;Front;def52.tif
24575245;114209;5;Color;Front;def53.tif
24575246;114209;5;Color;Front;def54.tif
24575247;114209;5;Color;Front;def55.tif
24575248;114209;5;Color;Front;def56.tif
24575139;114209;5;Color;Front;qrs1.tif
24575140;114209;5;Color;Front;qrs2.tif
24575141;114209;5;Color;Front;qrs3.tif
24575142;114209;5;Color;Front;qrs4.tif
24575143;114209;5;Color;Front;qrs5.tif
24575144;114209;5;Color;Front;qrs6.tif
24575145;114209;5;Color;Front;qrs7.tif
24575146;114209;5;Color;Front;qrs8.tif
24575147;114209;5;Color;Front;qrs9.tif
24575148;114209;5;Color;Front;qrs10.tif
24575149;114209;5;Color;Front;qrs11.tif
24575150;114209;5;Color;Front;qrs12.tif
24575151;114209;5;Color;Front;qrs13.tif
24575152;114209;5;Color;Front;qrs14.tif
24575153;114209;5;Color;Front;qrs15.tif
24575154;114209;5;Color;Front;qrs16.tif
24575155;114209;5;Color;Front;qrs17.tif
24575156;114209;5;Color;Front;qrs18.tif
24575157;114209;5;Color;Front;qrs19.tif
24575158;114209;5;Color;Front;qrs20.tif
24575159;114209;5;Color;Front;qrs21.tif
24575160;114209;5;Color;Front;qrs22.tif
24575161;114209;5;Color;Front;qrs23.tif
24575162;114209;5;Color;Front;qrs24.tif
24575163;114209;5;Color;Front;qrs25.tif
24575164;114209;5;Color;Front;qrs26.tif
24575165;114209;5;Color;Front;qrs27.tif
24575166;114209;5;Color;Front;qrs28.tif
24575167;114209;5;Color;Front;qrs29.tif
24575168;114209;5;Color;Front;qrs30.tif
24575169;114209;5;Color;Front;qrs31.tif
24575170;114209;5;Color;Front;qrs32.tif
24575171;114209;5;Color;Front;qrs33.tif
24575172;114209;5;Color;Front;qrs34.tif
24575173;114209;5;Color;Front;qrs35.tif
24575174;114209;5;Color;Front;qrs36.tif
24575175;114209;5;Color;Front;qrs37.tif
24575176;114209;5;Color;Front;qrs38.tif
24575177;114209;5;Color;Front;qrs39.tif
24575178;114209;5;Color;Front;qrs40.tif
24575179;114209;5;Color;Front;qrs41.tif
24575180;114209;5;Color;Front;qrs42.tif
24575181;114209;5;Color;Front;qrs43.tif
24575182;114209;5;Color;Front;qrs44.tif
24575183;114209;5;Color;Front;qrs45.tif
24575184;114209;5;Color;Front;qrs46.tif
24575185;114209;5;Color;Front;qrs47.tif
24575186;114209;5;Color;Front;qrs48.tif
24575187;114209;5;Color;Front;qrs49.tif