﻿[
  {
    "RowNumber": "0",
    "ExpectedDataFields": [
      {
        "FieldName": "Test",
        "Value": "123"
      },
      {
        "FieldName": "Test1",
        "Value": "100.00"
      }
    ]
  },
  {
    "RowNumber": "1",
    "ExpectedDataFields": [
      {
        "FieldName": "Test",
        "Value": "456"
      }
    ]

  }
]
